name;;WhatsApp;
Server license;no;proprietary;
Client license;no;proprietary;
Identity not controlled by vendor;no;;
Third party clients;no;banned https://indianewsrepublic.com/whatsapp-updates-privacy-and-bans-third-party-apps-non-contacts-see-the-impact/577681/;
Good ToSDR grade;no;https://tosdr.org/en/service/198;
